<?xml version="1.0"?>
<!-- Generator: Adobe Illustrator 16.0.0, SVG Export Plug-In . SVG Version: 6.00 Build 0)  --><svg enable-background="new 0 0 33 140" height="140px" id="svg2" inkscape:version="0.48.5 r10040" sodipodi:docname="AuroraSiteGui copie.svg" version="1.1" viewBox="0 0 33 140" width="33px" x="0px" xml:space="preserve" xmlns="http://www.w3.org/2000/svg" xmlns:cc="http://creativecommons.org/ns#" xmlns:dc="http://purl.org/dc/elements/1.1/" xmlns:inkscape="http://www.inkscape.org/namespaces/inkscape" xmlns:rdf="http://www.w3.org/1999/02/22-rdf-syntax-ns#" xmlns:sodipodi="http://sodipodi.sourceforge.net/DTD/sodipodi-0.dtd" y="0px"><metadata id="metadata514"><rdf:RDF><cc:Work rdf:about=""><dc:format>image/svg+xml</dc:format><dc:type rdf:resource="http://purl.org/dc/dcmitype/StillImage"/></cc:Work></rdf:RDF></metadata><defs id="defs512"/><sodipodi:namedview bordercolor="#666666" borderopacity="1" gridtolerance="10" guidetolerance="10" id="namedview510" inkscape:current-layer="svg2" inkscape:cx="16.5" inkscape:cy="70" inkscape:pageopacity="0" inkscape:pageshadow="2" inkscape:window-height="1053" inkscape:window-maximized="1" inkscape:window-width="1834" inkscape:window-x="77" inkscape:window-y="-9" inkscape:zoom="1.6857143" objecttolerance="10" pagecolor="#ffffff" showgrid="false"/>


<g id="quiz_1_">
	
	
	
	<g id="eval">
		<path d="M2.157,15.998C2.157,7.713,8.871,1,17.156,1c8.285,0,15.001,6.713,15.001,14.998    S25.44,30.996,17.156,30.996C8.871,30.996,2.157,24.283,2.157,15.998z M18.719,16.571l-5.303,5.302l1.937,1.939l7.231-7.233    l-7.712-7.713l-1.929,1.929L18.719,16.571z" fill="#434E52" id="next_2_"/>
		<g id="g77">
			<path d="M17.155,109c8.282,0,15.001,6.715,15.001,14.998c0,8.287-6.719,15.002-15.001,15.002     s-14.999-6.715-14.999-15.002C2.157,115.715,8.873,109,17.155,109" fill="#434E52" id="path79"/>
			<g id="Définition_1_">
				<path d="M9.29,119.632c-2.205,2.205-2.206,5.71,0,7.915c2.206,2.206,5.71,2.205,7.916,0      c2.205-2.204,2.205-5.71,0-7.915S11.495,117.427,9.29,119.632z M12.965,125.003c-0.792,0.792-2.036,0.792-2.827,0      c-0.792-0.791-0.792-2.035,0-2.827c0.791-0.792,2.035-0.791,2.827,0.001C13.756,122.968,13.756,124.212,12.965,125.003z" fill="#F9F9F9" id="path82"/>
				<path d="M17.771,121.329v4.521h2.261l0,0l1.131-1.13l1.13,1.13l0,0l1.131-1.13l1.131,1.13h0.791      c0.227,0.001,0.396-0.056,0.566-0.226l1.47-1.47c0.339-0.34,0.339-0.791,0-1.131l-1.47-1.47      c-0.169-0.17-0.339-0.227-0.565-0.227L17.771,121.329z" fill="#F9F9F9" id="path84"/>
			</g>
		</g>
		<g id="g86">
			<path d="M17.155,36.664c8.282,0,15.001,6.715,15.001,14.998c0,8.287-6.719,15.002-15.001,15.002     S2.157,59.949,2.157,51.662C2.157,43.379,8.873,36.664,17.155,36.664" fill="#434E52" id="path88"/>
			<g id="_x32__audio_simple_repeat_2_2_">
				<g id="g91">
					<path d="M26.392,54.618c0.276-0.884,0.436-1.818,0.436-2.792c0-5.19-4.19-9.416-9.364-9.482v3.047       c3.495,0.065,6.32,2.925,6.32,6.436c0,0.487-0.063,0.957-0.167,1.413l-2.848-1.413l1.984,5.894l5.892-1.985L26.392,54.618z" fill="#FFFFFF" id="path93"/>
					<path d="M11.927,52.146c0-0.489,0.063-0.958,0.167-1.415l2.848,1.415l-1.983-5.894l-5.891,1.985l2.251,1.115       c-0.276,0.885-0.437,1.82-0.437,2.793c0,5.191,4.19,9.414,9.365,9.481v-3.044C14.752,58.517,11.927,55.657,11.927,52.146z" fill="#FFFFFF" id="path95"/>
				</g>
			</g>
		</g>
		<g id="g97">
			<path d="M17.155,73.332c8.282,0,15.001,6.715,15.001,14.998c0,8.287-6.719,15.002-15.001,15.002     S2.157,96.617,2.157,88.33C2.157,80.047,8.873,73.332,17.155,73.332" fill="#434E52" id="path99"/>
			<g id="Exemple_2_">
				<g id="g102">
					<path d="M18.157,97.318c0,0.695-0.564,1.262-1.261,1.262c-0.696,0-1.261-0.566-1.261-1.262       c0-0.698,0.564-1.261,1.261-1.261C17.593,96.058,18.157,96.62,18.157,97.318z" fill="#FFFFFF" id="path104"/>
					<path d="M16.944,94.782c-0.842,0-1.632-0.329-2.229-0.927c-0.596-0.695-0.923-1.486-0.923-2.328       s0.328-1.633,0.923-2.126l4.216-4.216c0.476-0.478,0.738-1.11,0.738-1.782c0-0.675-0.263-1.308-0.739-1.784       c-0.982-0.981-2.582-0.982-3.564,0c-0.478,0.477-0.74,1.109-0.74,1.784h-2.521c0-1.348,0.525-2.616,1.48-3.568       c1.904-1.905,5.223-1.903,7.13,0.003c0.952,0.949,1.477,2.216,1.477,3.565c0,1.347-0.524,2.612-1.478,3.565l-4.216,4.112       c-0.245,0.246-0.245,0.645,0,0.892c0.247,0.246,0.646,0.246,0.891,0c0.161-0.162,0.185-0.351,0.185-0.447h2.521       c0,0.842-0.328,1.635-0.924,2.33C18.577,94.452,17.786,94.782,16.944,94.782L16.944,94.782z" fill="#FFFFFF" id="path106"/>
				</g>
			</g>
		</g>
	</g>
	
</g>


</svg>