<?xml version="1.0"?>
<!-- Generator: Adobe Illustrator 16.0.0, SVG Export Plug-In . SVG Version: 6.00 Build 0)  --><svg enable-background="new 0 0 589.396 3197.895" height="3197.895px" id="svg4768" inkscape:version="0.48.5 r10040" sodipodi:docname="schBtn.svg" version="1.1" viewBox="0 0 589.396 3197.895" width="589.396px" x="0px" xml:space="preserve" xmlns="http://www.w3.org/2000/svg" xmlns:inkscape="http://www.inkscape.org/namespaces/inkscape" xmlns:sodipodi="http://sodipodi.sourceforge.net/DTD/sodipodi-0.dtd" y="0px">
<sodipodi:namedview bordercolor="#666666" borderopacity="1.0" fit-margin-bottom="0" fit-margin-left="0" fit-margin-right="0" fit-margin-top="0" id="base" inkscape:current-layer="g3970" inkscape:cx="1171.2615" inkscape:cy="2567.6157" inkscape:document-units="px" inkscape:pageopacity="0.0" inkscape:pageshadow="2" inkscape:window-height="804" inkscape:window-maximized="1" inkscape:window-width="1536" inkscape:window-x="-8" inkscape:window-y="-8" inkscape:zoom="0.35" pagecolor="#ffffff" showgrid="false">
	</sodipodi:namedview>
<g id="g3970" transform="translate(-811.47477,-596.69558)">
	
		<rect fill="#434E52" height="27.353" id="rect3883" stroke="#000000" stroke-opacity="0" stroke-width="0.7872" width="295.868" x="958.543" y="597.089"/>
	
		<rect fill="#434E52" height="27.353" id="rect3883-0" stroke="#000000" stroke-opacity="0" stroke-width="0.7872" width="295.868" x="958.543" y="657.089"/>
	
		<rect fill="#434E52" height="27.353" id="rect3883-9" stroke="#000000" stroke-opacity="0" stroke-width="0.7872" width="295.868" x="958.543" y="717.089"/>
	
		<rect fill="#434E52" height="27.353" id="rect3883-9-4" stroke="#000000" stroke-opacity="0" stroke-width="0.7872" width="295.868" x="958.543" y="777.089"/>
	
		<rect fill="#434E52" height="27.353" id="rect3883-9-4-8" stroke="#000000" stroke-opacity="0" stroke-width="0.7872" width="295.868" x="958.543" y="835.089"/>
	<g id="g3098">
		<polygon fill="#434E52" id="rect3950" points="811.813,759.424     1107.137,1011.362 1107.137,1217.807 811.813,965.87   " stroke="#000000" stroke-opacity="0" stroke-width="0.775"/>
		<polygon fill="#434E52" id="rect3950-8" points="1400.533,759.424     1105.813,1011.362 1105.813,1217.808 1400.533,965.87   " stroke="#000000" stroke-opacity="0" stroke-width="0.7746"/>
		
			<rect fill="#434E52" height="205.686" id="rect3096" stroke="#000000" stroke-opacity="0" stroke-width="0.446" width="2.606" x="1104.698" y="1010.304"/>
	</g>
	<g id="g3098-8" transform="matrix(-1,0,0,-1,2371.8651,308.91928)">
		<polygon fill="#434E52" id="rect3950-2" points="971.332,-1373.745     1266.656,-1121.808 1266.656,-915.363 971.332,-1167.3   " stroke="#000000" stroke-opacity="0" stroke-width="0.775"/>
		<polygon fill="#434E52" id="rect3950-8-4" points="    1560.053,-1373.746 1265.332,-1121.808 1265.332,-915.363 1560.053,-1167.3   " stroke="#000000" stroke-opacity="0" stroke-width="0.7746"/>
		
			<rect fill="#434E52" height="205.686" id="rect3096-5" stroke="#000000" stroke-opacity="0" stroke-width="0.446" width="2.606" x="1264.216" y="-1122.865"/>
	</g>
</g>
<rect fill="#434E52" height="27.301" id="rect3883-4" stroke="#000000" stroke-opacity="0" stroke-width="0.7857" width="295.31" x="147.347" y="1220.865"/>
<rect fill="#434E52" height="27.301" id="rect3883-0-5" stroke="#000000" stroke-opacity="0" stroke-width="0.7857" width="295.31" x="147.347" y="1160.979"/>
<rect fill="#434E52" height="27.301" id="rect3883-9-5" stroke="#000000" stroke-opacity="0" stroke-width="0.7857" width="295.31" x="147.347" y="1101.092"/>
<rect fill="#434E52" height="27.301" id="rect3883-9-4-1" stroke="#000000" stroke-opacity="0" stroke-width="0.7857" width="295.31" x="147.347" y="1041.205"/>
<rect fill="#434E52" height="27.301" id="rect3883-9-4-8-7" stroke="#000000" stroke-opacity="0" stroke-width="0.7857" width="295.31" x="147.347" y="983.315"/>
<g id="g4300" transform="translate(-811.47477,-574.69558)">
	
		<rect fill="#434E52" height="531.429" id="rect4018" stroke="#000000" stroke-opacity="0" width="108.571" x="1263.098" y="1941.518"/>
	<g id="g4042" transform="matrix(1.1913744,0,0,1,-1646.6968,0)">
		
			<path d="    M2102.36,1940.779l3.798,528.93l319.301-269.165L2102.36,1940.779z" fill="#434E52" id="path4276" inkscape:connector-curvature="0" stroke="#000000" stroke-opacity="0" stroke-width="0.7867"/>
	</g>
</g>
<g id="g4300-4" transform="matrix(-1,0,0,-1,1577.7843,2387.645)">
	
		<rect fill="#434E52" height="531.429" id="rect4018-3" stroke="#000000" stroke-opacity="0" width="108.572" x="1422.616" y="-191.651"/>
	<g id="g4042-1" transform="matrix(1.1913744,0,0,1,-1646.6968,0)">
		
			<path d="    M2236.255-192.391l3.798,528.93l319.302-269.165L2236.255-192.391z" fill="#434E52" id="path4276-2" inkscape:connector-curvature="0" stroke="#000000" stroke-opacity="0" stroke-width="0.7867"/>
	</g>
</g>
<path d="  M578.979,2911.68c0,157.801-127.923,285.725-285.724,285.725c-157.801,0-285.724-127.924-285.724-285.725  s127.923-285.724,285.724-285.724C451.057,2625.956,578.979,2753.879,578.979,2911.68L578.979,2911.68z" fill="#434E52" id="path4110" sodipodi:cx="1205.7142" sodipodi:cy="2709.5051" sodipodi:rx="291.42856" sodipodi:ry="291.42856" sodipodi:type="arc" stroke="#000000" stroke-opacity="0"/>
<g id="g4132" transform="translate(-785.35157,-666.69558)">
	
		<rect fill="#FFFFFF" height="386.758" id="rect4112" stroke="#000000" stroke-opacity="0" stroke-width="0.9024" transform="matrix(-0.7071 0.7071 -0.7071 -0.7071 4369.9585 5342.9551)" width="87.665" x="1034.59" y="3383.141"/>
</g>
<g id="g4135" transform="translate(-785.35157,-666.69558)">
	
		<rect fill="#FFFFFF" height="386.758" id="rect4112-6" stroke="#000000" stroke-opacity="0" stroke-width="0.9024" transform="matrix(-0.7071 -0.7071 0.7071 -0.7071 -687.9984 6868.0625)" width="87.665" x="1034.591" y="3383.141"/>
</g>
</svg>